{
	"lists": [
		{
			"id": 1,
			"title": "This Is List #1",
			"subCount": 4321,
			"forms": [
				{
				"name": "This is the first form",
				"fields": [
					{
						"cid": "c1",
						"label": "First name",
						"field_type": "text",
						"required": true,
						"field_options": {"size":"small"},
						"description": "",
						"include_other": "",
						"include_blank": "",
						"integer_only": false,
						"min": 0,
						"max": 256
					},
					{
						"cid": "c2",
						"label": "Last name",
						"field_type": "text",
						"required": true,
						"field_options": {"size":"small"},
						"description": "",
						"include_other": "",
						"include_blank": "",
						"integer_only": false,
						"min": 0,
						"max": 256
					},
					{
						"cid": "c3",
						"label": "Email",
						"field_type": "text",
						"required": true,
						"field_options": {"size":"small"},
						"description": "",
						"include_other": "",
						"include_blank": "",
						"integer_only": false,
						"min": 0,
						"max": 256
					}
				]
			}],
			"broadcasts": [
				{
					"id": 1,
					"title": "List Group Item Heading",
					"body": "Lorem ipsum dolor sit amet, consectetur adipiscing elit. Suspendisse efficitur sollicitudin justo, vel ultricies nisl ultricies ut. Quisque quam enim, molestie nec ex quis, varius ornare neque. Nullam blandit orci et sollicitudin cursus. Cras eleifend ultricies blandit. Donec luctus sodales est, nec ultrices augue venenatis euismod. Donec aliquet nulla ut mi cursus fermentum. Nullam quis porta nulla. Pellentesque in venenatis eros, vitae consequat eros. Suspendisse sit amet arcu et est vulputate luctus non ac diam. Morbi et maximus risus, et dictum diam. Pellentesque fringilla facilisis ligula, sed dignissim enim eleifend at.",
					"followups": [
						{
							"id": 1,
							"title": "Our pets arrange themselves around my girlfriend and I like this almost every night.",
							"body": "The SpaceX company's supply ship, Dragon, pulled up at the orbiting lab two days after its liftoff from Florida. Station commander Butch Wilmore used a robot arm to grab the capsule and its 5,000 pounds of cargo, as the craft soared more than 260 miles above the Mediterranean. The space station's six astronauts were getting a little low on supplies. That's because the previous supply ship — owned by another company — was destroyed in an October launch explosion. NASA scrambled to get equipment lost in the blast aboard Dragon, as did school children who rustled up new science projects.",
							"placement": 2,
							"delay": 4,
							"opens": 123,
							"clicks": 34,
							"ctr":0.12,
							"sales": 15
						},{
							"id": 2,
							"title": "New dinosaur species found in Scotland",
							"body": "A giant killer reptile which resembled a dolphin merged with a crocodile once roamed the ancient seas around Scotland. The new species of ancient sea monster that lived around 170 million years ago has been identified from fossils found on the Isle of Skye. The dolphin-like creatures were as long as 14 feet from snout to tail, and inhabited warm, shallow seas around Scotland during the Jurassic Period, according to researchers at the University of Edinburgh. They were near the top of the food chain at the time and preyed on fish and other reptiles. A team of palaeontologists studied fossil fragments of skulls, teeth, vertebrae and an upper arm bone unearthed on the island over the past 50 years.",
							"placement": 3,
							"delay": 6,
							"opens": 1567,
							"clicks": 456,
							"ctr":0.34,
							"sales": 321
						},{
							"id": 3,
							"title": "Ubuntu Music app on Ubuntu 15.04",
							"body": "However, I’m going to make a case for why you could also consider designing for open source. First, I should mention that not all open source work is free work. Some companies hire open source contributors to work on their projects full-time, usually because that project is used by said company. There are other companies that encourage open source contribution and even offer 20%-time for these projects (where you can spend one day a week contributing to open source). These are super rad situations to be in. However, whether you’re able to land a gig doing this type of work, or you’ve decided to volunteer your time and energy, designing for open source can be rewarding in many other ways.",
							"placement": 1,
							"delay": 1,
							"opens": 86,
							"clicks": 22,
							"ctr":0.06,
							"sales": 10
						}
					],
					"send_on": "2015-9-9",
					"timezone": "",
					"gmtAdjustment": "",
					"opens": 763,
					"clicks": 143,
					"ctr":0.45,
					"sales": 50
				},{
					"id": 8,
					"title": "Walking in to Costco",
					"body": "Quisque et lorem ultricies, imperdiet lectus mollis, elementum turpis. Sed hendrerit orci nec aliquam tempus. Proin dignissim fermentum est in sagittis. Nam turpis purus, interdum nec mollis eget, fringilla pellentesque lectus. Quisque suscipit felis at pretium luctus. Proin sodales sem ut tristique varius. In augue lacus, pharetra pellentesque felis id, hendrerit egestas felis. Donec fringilla ante ac tortor venenatis tincidunt. Proin rhoncus feugiat tortor, id semper mi vehicula vel. Nunc imperdiet massa a dui pretium consectetur. Sed placerat nisl sit amet massa tempor tempus. Cras tincidunt tincidunt nisi, eu sollicitudin augue. Sed gravida quam libero, malesuada venenatis tellus pharetra vitae.",
					"followups": [
						{
							"id": 4,
							"title": "Why You Should Design for Open Source",
							"body": "Let’s be honest. Most designers don’t like working for nothing. We rally against spec work and make a stand for contracts and getting paid. That’s totally what you should do as a professional designer in the industry. It’s your job. It’s your hard-working skill. It’s your bread and butter. Get paid.",
							"placement": 3,
							"delay": 4,
							"opens": 234,
							"clicks": 213,
							"ctr":0.6,
							"sales": 100
						},{
							"id": 5,
							"title": "Create a docker container for your CherryPy application",
							"body": "In the past year, process isolation through the use of containers has exploded and you can find containers for almost anything these days. So why not creating a container to isolate your CherryPy application from the rest of the world?I will not focus on the right and wrongs in undertaking such a task. This is not the point of this article. On the other hand, this article will guide you through the steps to create a base container image that will support creating per-project images that can be run in containers. We will be using docker for this since it’s the hottest container technology out there. It doesn’t mean it’s the best, just that it’s the most popular which in turns means there is high demand for it. With that being said, once you have decided containers are a relevant feature to you, I encourage you to have a look at other technologies in that field to draw your own conclusion.",
							"placement": 1,
							"delay": 4,
							"opens": 10045,
							"clicks": 8704,
							"ctr":0.36,
							"sales": 2045
						},{
							"id": 6,
							"title": "Any self-published authors with their books on Amazon want a bit of free advertising?",
							"body": "They described the Cuban government’s release over the weekend of the last detainees on the list as a milestone but said they would keep pressing Havana to free more people the United States considers political prisoners. The officials, speaking to Reuters on condition of anonymity, did not say how many prisoners were released over the weekend or identify them. But the White House will provide the names of all 53 to Congress and expects lawmakers to make them public, the officials added.",
							"placement": 4,
							"delay": 4,
							"opens": 45,
							"clicks": 30,
							"ctr":0.89,
							"sales": 28
						},{
							"id": 7,
							"title": "Cuba has freed all 53 prisoners as agreed in U.S. deal",
							"body": "Leading Cuban dissidents said that as of Sunday they had not received word that the prisoner release was complete and only knew of up to 39 people freed since Dec. 17, including a popular hip-hop artist. We have heard nothing new today, said Elizardo Sanchez, president of the dissident Cuban Commission for Human Rights and National Reconciliation, which monitors detentions. We’ll see in the next few days if they complete the list.",
							"placement": 2,
							"delay": 4,
							"opens": 577,
							"clicks": 400,
							"ctr":0.25,
							"sales": 100
						}
					],
					"send_on": "2014-2-9",
					"timezone": "",
					"gmtAdjustment": "",
					"opens": 780,
					"clicks": 700,
					"ctr":0.67,
					"sales": 387
				}
			]
		},
		{
			"id": 2,
			"title": "List #2",
			"subCount": 9876,
			"forms": [
				{
				"name": "This is the second form",
				"fields": [
					{
						"cid": "c4",
						"label": "Name",
						"field_type": "text",
						"required": true,
						"field_options": {"size":"small"},
						"description": "",
						"include_other": "",
						"include_blank": "",
						"integer_only": false,
						"min": 0,
						"max": 256
					},
					{
						"cid": "c5",
						"label": "Email",
						"field_type": "text",
						"required": true,
						"field_options": {"size":"small"},
						"description": "",
						"include_other": "",
						"include_blank": "",
						"integer_only": false,
						"min": 0,
						"max": 256
					}
				]
			}],
			"broadcasts": [
			{
				"id": 2,
				"title": "List Heading #2",
				"body": "Aenean sollicitudin scelerisque placerat. Ut nisi tellus, viverra quis turpis vel, sagittis vehicula quam. Nunc dolor est, pretium in libero sed, viverra ullamcorper lectus. Sed mollis quam tortor, in mattis libero finibus ut. Vestibulum nulla metus, placerat nec nisi ut, venenatis ullamcorper justo. Fusce eu dui efficitur, aliquet lorem id, ullamcorper metus. In in lectus eget quam malesuada accumsan. Vivamus dictum aliquam eros quis bibendum. Phasellus ipsum dui, fermentum in faucibus non, blandit id lorem.",
				"followups": [
					{
							"id": 8,
							"title": "Automatically prefix email subject with Rails Env",
							"body": "Rails 3.1 and above have a great feature that allow for intercepting all outgoing email and optionally modifying the mail object before it is delivered. I've used a pretty simple interceptor across several projects to add a standard subject prefix and have been very happy with the results. Now, after several iterations I have finally gotten around to wrapping this behavior up into a standalone gem. The email_prefixer gem encapsulates this functionality and is absolutely simple to get up and running. Literally bundle install and your done.",
							"placement": 2,
							"delay": 4,
							"opens": 99,
							"clicks": 90,
							"ctr":0.2,
							"sales": 18
						},{
							"id": 9,
							"title": "Customizing the application name",
							"body": "On someones advice here I have been on codecademy since December (literally have no life between work, getting my CPA courses done, learning code, and 1 day set aside to spend with my gf per week I'm happy i can stick in 1 - 2 hours at the gym every night. But the ultimate question is will this help me with what I want to achieve? I'm very techy and am doing the ruby on rails course now. I've gone through HTML, CSS (which were nice refreshers) and Javascript / JQuery, now I''m onto Ruby on Rails. Maybe its me but I feel like there are possbly more indepth courses I can be doing. Also on a side note I went downtown and did some random surveys about my idea and got some great feedback, It also opened up my eyes to potential problems I did not see.",
							"placement": 1,
							"delay": 4,
							"opens": 245,
							"clicks": 200,
							"ctr":0.21,
							"sales": 23
						}
				],
				"send_on": "2014-2-2",
				"timezone": "",
				"gmtAdjustment": "",
				"opens": 6785,
				"clicks": 435,
				"ctr":0.36,
				"sales": 245
			},{
				"id": 5,
				"title": "My first day with my drone",
				"body": "Suspendisse at magna sodales, mattis ligula eget, imperdiet urna. Nunc et vulputate velit. Sed elementum est non hendrerit rhoncus. Maecenas malesuada dignissim nisi non ornare. Praesent et dolor vel arcu rutrum lacinia in a nunc. Sed suscipit congue ultrices. Vestibulum molestie sem fermentum augue mattis, quis gravida sem euismod. Proin id pulvinar leo.",
				"followups": [
					{
							"id": 10,
							"title": "World’s Largest Indoor Farm is 100 Times More Productive",
							"body": "The statistics for this incredibly successful indoor farming endeavor in Japan are staggering: 25,000 square feet producing 10,000 heads of lettuce per day (100 times more per square foot than traditional methods) with 40% less power, 80% less food waste and 99% less water usage than outdoor fields. But the freshest news from the farm: a new facility using the same technologies has been announced and is now under construction in Hong Kong, with Mongolia, Russia and mainland China on the agenda for subsequent near-future builds. In the currently-completed setup, customized LED lighting developed with GE helps plants grow up to two and half times faster, one of the many innovations co-developed  in this enterprise by Shigeharu Shimamura, the man who helped turn a former semiconductor factory into the planet’s biggest interior factory farm.",
							"placement": 1,
							"delay": 4,
							"opens": 67845,
							"clicks": 45365,
							"ctr":0.36,
							"sales": 4677
						}
				],
				"send_on": "2015-4-4",
				"timezone": "",
				"gmtAdjustment": "",
				"opens": 45,
				"clicks": 34,
				"ctr": 0.09,
				"sales": 15
			},{
				"id": 7,
				"title": "RIP Google Analytics, Casualty of Spam",
				"body": "Ut et est sollicitudin, tristique sapien ac, ultricies felis. Nulla ut malesuada nunc. Etiam eros metus, posuere ac cursus ac, suscipit ullamcorper ligula. Donec tempus felis libero, elementum pellentesque massa malesuada sed. Proin ultricies vulputate nibh, nec fermentum odio. In mattis urna eget sem dictum finibus sit amet non velit. Etiam consectetur, est ac vulputate faucibus, massa mi tempor magna, in ullamcorper erat sem non elit.",
				"followups": [
					{
							"id": 11,
							"title": "France to deploy 10,000 troops",
							"body": "France is mobilising 10,000 troops to boost security after last week's deadly attacks, and will send thousands of police to protect Jewish schools. Defence Minister Jean-Yves Le Drian said troops would be in place from Tuesday evening in sensitive areas. It is the first time troops have been deployed within France on such a scale. Seventeen people were killed in Paris last week in attacks at satirical magazine Charlie Hebdo, on a police officer, and at a kosher supermarket. On Sunday, an estimated 3.7 million people took to the streets to show solidarity with the victims, including 1.5 million people in Paris. About 40 world leaders joined the start of the Paris march, linking arms in an act of solidarity. President Francois Hollande ordered the deployment of troops during a crisis meeting with top officials early on Monday.",
							"placement": 1,
							"delay": 4,
							"opens": 2299,
							"clicks": 457,
							"ctr":0.8,
							"sales": 568
						}
				],
				"send_on": "2015-7-6",
				"timezone": "",
				"gmtAdjustment": "",
				"opens": 478,
				"clicks": 423,
				"ctr":0.07,
				"sales": 47
			}
			]
		},
		{
			"id": 3,
			"title": "List #3",
			"subCount": 1234,
			"forms": [
				{
				"name": "This is the third form",
				"fields": [
					{
						"cid": "c6",
						"label": "FIRSTNAME",
						"field_type": "text",
						"required": true,
						"field_options": {"size":"small"},
						"description": "",
						"include_other": "",
						"include_blank": "",
						"integer_only": false,
						"min": 0,
						"max": 256
					},
					{
						"cid": "c7",
						"label": "LASTNAME",
						"field_type": "text",
						"required": true,
						"field_options": {"size":"small"},
						"description": "",
						"include_other": "",
						"include_blank": "",
						"integer_only": false,
						"min": 0,
						"max": 256
					},
					{
						"cid": "c8",
						"label": "EMAIL",
						"field_type": "text",
						"required": true,
						"field_options": {"size":"small"},
						"description": "",
						"include_other": "",
						"include_blank": "",
						"integer_only": false,
						"min": 0,
						"max": 256
					},
					{
						"cid": "c9",
						"label": "PHONE",
						"field_type": "text",
						"required": true,
						"field_options": {"size":"small"},
						"description": "",
						"include_other": "",
						"include_blank": "",
						"integer_only": false,
						"min": 0,
						"max": 256
					}
				]
			}],
			"broadcasts": [
			{
				"id": 3,
				"title": "3rd List Group Item heading",
				"body": "Phasellus aliquam laoreet libero at ultrices. Phasellus pellentesque felis sit amet erat euismod, id condimentum purus congue. Donec sed justo elit. Phasellus dictum viverra erat, eget mattis justo dictum vel. Class aptent taciti sociosqu ad litora torquent per conubia nostra, per inceptos himenaeos. Donec ac bibendum est. Cras vehicula gravida tempor. Nullam sollicitudin cursus turpis, ac tristique dui dignissim vel. Pellentesque habitant morbi tristique senectus et netus et malesuada fames ac turpis egestas. Pellentesque et dignissim tortor.",
				"followups": [
					{
							"id": 12,
							"title": "Firefox can take full screenshots of your sites and save them to file from the developer tools.",
							"body": "Firefox's developer tools have been well-noticed due to the wealth of functionality they provide, but one tool you don't hear too much about is Developer Toolbar, which looks much like the console but serves a completely different purpose.  One of those purposes is allowing developers to create a screenshot of the current page in Firefox.  Let me show you how!",
							"placement": 1,
							"delay": 4,
							"opens": 1869,
							"clicks": 567,
							"ctr":0.25,
							"sales": 58
						},{
							"id": 13,
							"title": "What makes a good API great",
							"body": "Imagine an application where something is called an ‘Apple’ in one place and ‘Orange’ in another. Users would scream murder. The same holds for APIs. The best ones are simple and consistent — built on top of a small set of objects with well defined relationships and operations. Dropbox’s Core API exemplifies simplicity. It is built around a single object type — Files — and, three operations — read metadata, read content, and upload content. When a developer sees this API, she can easily understand the different things that can be easily accomplished. And this intuitive understanding will ultimately drive her to build with your API.",
							"placement": 3,
							"delay": 4,
							"opens": 8435,
							"clicks": 2356,
							"ctr":0.46,
							"sales": 456
						},{
							"id": 14,
							"title": "Have a Quick Start guide",
							"body": "API documentation is the equivalent of user on-boarding in your application. The best ones enable the developer to start using the API productively in minutes. But too often, API documentation is restricted to a reference guide. And in a world of short attention spans, only a few finally get through. Good ones — like Github — start users with a short Quick Start guide. In minutes one can get the API working and broadly understand the different entities and their relationships, and feel much more confident about building something more complex.",
							"placement": 2,
							"delay": 4,
							"opens": 85,
							"clicks": 3,
							"ctr":0.02,
							"sales": 4
						}
				],
				"send_on": "2015-6-7",
				"timezone": "",
				"gmtAdjustment": "",
				"opens": 46953,
				"clicks": 24564,
				"ctr":0.56,
				"sales": 32566
			},{
				"id": 4,
				"title": "Baby Duck Billed Platypus",
				"body": "Pellentesque pellentesque diam sit amet lorem placerat, eu ultricies nisl tincidunt. Mauris ultrices augue ipsum, ac tincidunt nisi vehicula dapibus. Aliquam a bibendum risus. Aenean accumsan lorem ex, ut elementum ligula congue sit amet. Etiam a dolor auctor, sodales neque quis, mollis lectus. Nunc in mauris lobortis, lobortis tortor fermentum, fringilla mauris. Nullam ac nibh id mi rutrum imperdiet. Praesent eleifend ex eget dolor mollis commodo. Duis eu metus sed diam luctus accumsan eu id justo. Quisque nulla nunc, pellentesque vitae pellentesque quis, ultrices vitae sem. Duis ornare neque non molestie sollicitudin. Pellentesque imperdiet nulla non neque ultricies convallis. Nulla facilisi. Sed dignissim neque a convallis finibus. Fusce at sapien auctor, consectetur sem in, aliquet tellus.",
				"followups": [
					{
							"id": 15,
							"title": "Provide clear feedback on fails (and successes)",
							"body": "API calls will fail. They could be because the developer is doing something wrong. Or because, they have hit the specified rate limits. Or maybe just because something bad happened. Whatever, be the case let the developers know — preferably via HTTP error codes. Immediate and clear feedback frees the developer from constantly worrying about data consistency. And since HTTP codes have narrow semantic meanings it becomes easier to fix errors and communicate them with the end-users. On your end, it makes future investments easier since you can understand where things need to change just by looking at your access logs.",
							"placement": 1,
							"delay": 4,
							"opens": 142,
							"clicks": 67,
							"ctr":0.08,
							"sales": 24
						}
				],
				"send_on": "2014-1-3",
				"timezone": "",
				"gmtAdjustment": "",
				"opens": 784,
				"clicks": 425,
				"ctr":0.35,
				"sales": 198
			},{
				"id": 6,
				"title": "McDonald's is putting books in their Happy Meals instead of toys",
				"body": "Quisque arcu purus, porta at orci id, sollicitudin fermentum lacus. Sed at ullamcorper eros. Donec facilisis, tortor sit amet sollicitudin luctus, magna leo congue quam, vitae aliquam est est a quam. Maecenas vitae risus ac arcu interdum porta et eu nisi. Nullam placerat elementum luctus. Curabitur aliquam interdum neque, ut sagittis dolor molestie auctor. Aenean finibus risus turpis, id dignissim sem elementum ac. Nam eros nulla, porttitor sit amet felis vel, aliquet egestas velit.",
				"followups": [],
				"send_on": "2015-3-1",
				"timezone": "",
				"gmtAdjustment": "",
				"opens": 457,
				"clicks": 345,
				"ctr":0.04,
				"sales": 34
			}
			]
		}
	]
}